R para iniciantes
…
---

# Pacote dplyr

```r
install.packages("dplyr")
library(dplyr)
```

#### Base de dados: starwars

```
## # A tibble: 87 x 14
##    name  height  mass hair_color skin_color eye_color birth_year sex   gender homeworld
##    <chr>  <int> <dbl> <chr>      <chr>      <chr>          <dbl> <chr> <chr>  <chr>    
##  1 Luke~    172    77 blond      fair       blue            19   male  mascu~ Tatooine 
##  2 C-3PO    167    75 <NA>       gold       yellow         112   none  mascu~ Tatooine 
##  3 R2-D2     96    32 <NA>       white, bl~ red             33   none  mascu~ Naboo    
##  4 Dart~    202   136 none       white      yellow          41.9 male  mascu~ Tatooine 
##  5 Leia~    150    49 brown      light      brown           19   fema~ femin~ Alderaan 
##  6 Owen~    178   120 brown, gr~ light      blue            52   male  mascu~ Tatooine 
##  7 Beru~    165    75 brown      light      blue            47   fema~ femin~ Tatooine 
##  8 R5-D4     97    32 <NA>       white, red red             NA   none  mascu~ Tatooine 
##  9 Bigg~    183    84 black      light      brown           24   male  mascu~ Tatooine 
## 10 Obi-~    182    77 auburn, w~ fair       blue-gray       57   male  mascu~ Stewjon  
## # ... with 77 more rows, and 4 more variables: species <chr>, films <list>,
## #   vehicles <list>, starships <list>
```

---

# Funções do pacote dplyr

#### Selecionar variáveis: select

```r
library(dplyr)
starwars %>%
* select(name, height, mass)
```

```
## # A tibble: 87 x 3
##    name               height  mass
##    <chr>               <int> <dbl>
##  1 Luke Skywalker        172    77
##  2 C-3PO                 167    75
##  3 R2-D2                  96    32
##  4 Darth Vader           202   136
##  5 Leia Organa           150    49
##  6 Owen Lars             178   120
##  7 Beru Whitesun lars    165    75
##  8 R5-D4                  97    32
##  9 Biggs Darklighter     183    84
## 10 Obi-Wan Kenobi        182    77
## # ... with 77 more rows
```

---

# Funções do pacote dplyr

#### Criar, modificar e deletar colunas: mutate

```r
starwars %>%
  select(name, height, mass) %>%
* mutate(imc = mass/height^2)
```

```
## # A tibble: 87 x 4
##    name               height  mass     imc
##    <chr>               <int> <dbl>   <dbl>
##  1 Luke Skywalker        172    77 0.00260
##  2 C-3PO                 167    75 0.00269
##  3 R2-D2                  96    32 0.00347
##  4 Darth Vader           202   136 0.00333
##  5 Leia Organa           150    49 0.00218
##  6 Owen Lars             178   120 0.00379
##  7 Beru Whitesun lars    165    75 0.00275
##  8 R5-D4                  97    32 0.00340
##  9 Biggs Darklighter     183    84 0.00251
## 10 Obi-Wan Kenobi        182    77 0.00232
## # ... with 77 more rows
```
---

# Funções do pacote dplyr

#### Escolher observações com base nos seus valores: filter

```r
starwars %>%
  select(name, species, height, mass) %>%
* filter(species == "Human") %>%
  mutate(imc = mass/height^2)
```

```
## # A tibble: 35 x 5
##    name               species height  mass      imc
##    <chr>              <chr>    <int> <dbl>    <dbl>
##  1 Luke Skywalker     Human      172    77  0.00260
##  2 Darth Vader        Human      202   136  0.00333
##  3 Leia Organa        Human      150    49  0.00218
##  4 Owen Lars          Human      178   120  0.00379
##  5 Beru Whitesun lars Human      165    75  0.00275
##  6 Biggs Darklighter  Human      183    84  0.00251
##  7 Obi-Wan Kenobi     Human      182    77  0.00232
##  8 Anakin Skywalker   Human      188    84  0.00238
##  9 Wilhuff Tarkin     Human      180    NA NA      
## 10 Han Solo           Human      180    80  0.00247
## # ... with 25 more rows
```
…
---

# Funções do pacote dplyr

#### Mudar a ordem das linhas: arrange

```r
starwars %>%
  select(name, species, gender, height, mass) %>%
  filter(species == "Human") %>%
* arrange(desc(height))
```

```
## # A tibble: 35 x 5
##    name                species gender    height  mass
##    <chr>               <chr>   <chr>      <int> <dbl>
##  1 Darth Vader         Human   masculine    202 136  
##  2 Qui-Gon Jinn        Human   masculine    193  89  
##  3 Dooku               Human   masculine    193  80  
##  4 Bail Prestor Organa Human   masculine    191  NA  
##  5 Anakin Skywalker    Human   masculine    188  84  
##  6 Mace Windu          Human   masculine    188  84  
##  7 Raymus Antilles     Human   masculine    188  79  
##  8 Gregar Typho        Human   masculine    185  85  
##  9 Biggs Darklighter   Human   masculine    183  84  
## 10 Boba Fett           Human   masculine    183  78.2
## # ... with 25 more rows
```
…
# Funções do pacote dplyr

#### Mudar a ordem das linhas: arrange

```r
starwars %>%
  select(name, species, gender, height, mass) %>%
  filter(species == "Human") %>%
* group_by(gender) %>%
* arrange(desc(height), .by_group = TRUE)
```

```
## # A tibble: 35 x 5
## # Groups:   gender [2]
##    name               species gender    height  mass
##    <chr>              <chr>   <chr>      <int> <dbl>
##  1 Jocasta Nu         Human   feminine     167    NA
##  2 Beru Whitesun lars Human   feminine     165    75
##  3 Dormé              Human   feminine     165    NA
##  4 Padmé Amidala      Human   feminine     165    45
##  5 Shmi Skywalker     Human   feminine     163    NA
##  6 Cordé              Human   feminine     157    NA
##  7 Leia Organa        Human   feminine     150    49
##  8 Mon Mothma         Human   feminine     150    NA
##  9 Rey                Human   feminine      NA    NA
## 10 Darth Vader        Human   masculine    202   136
## # ... with 25 more rows
```
…
